{
	"status": 1,
	"msg": "成功",
	"data": {
		"cartNum": 0,
		"list": [{
			"supMemId": "0000108",
			"supMemDept": "大数据部门",
			"connObjCatCd": "1010101",
			"connObjId": "DON00001080000000012",
			"keyWord": "年龄",
			"timeStamp": "",
			"expiryDate": "",
			"supMemName": "联通小沃",
			"status": 4,
			"prdtDesc": "对年龄进行分段显示",
			"connObjNo": "DOS20161003000000001",
			"prdtIdCd": "000002",
			"prdtName": "年龄段",
			"id": 1,
			"connObjVer": "100"
		}, {
			"supMemId": "0000108",
			"supMemDept": "大数据部门",
			"connObjCatCd": "1010101",
			"connObjId": "DON00001080000000016",
			"keyWord": "学历",
			"timeStamp": "",
			"expiryDate": "",
			"supMemName": "联通小沃",
			"status": 2,
			"prdtDesc": "学历",
			"connObjNo": "DOS20161003000000006",
			"prdtIdCd": "000006",
			"prdtName": "学历",
			"id": 2,
			"connObjVer": "100"
		}, {
			"supMemId": "0000101",
			"supMemDept": "大数据部门",
			"connObjCatCd": "1010101",
			"connObjId": "DON00001010000000051",
			"keyWord": "性别",
			"timeStamp": "",
			"expiryDate": "",
			"supMemName": "电信上海",
			"status": 2,
			"prdtDesc": "-",
			"connObjNo": "DOS20161004000000011",
			"prdtIdCd": "000001",
			"prdtName": "性别预测",
			"id": 3,
			"connObjVer": "100"
		}, {
			"supMemId": "0000101",
			"supMemDept": "大数据部门",
			"connObjCatCd": "1010101",
			"connObjId": "DON00001010000000056",
			"keyWord": "年龄",
			"timeStamp": "",
			"expiryDate": "",
			"supMemName": "电信上海",
			"status": 2,
			"prdtDesc": "-",
			"connObjNo": "DOS20161004000000016",
			"prdtIdCd": "000002",
			"prdtName": "年龄段",
			"id": 4,
			"connObjVer": "100"
		}, {
			"supMemId": "0000101",
			"supMemDept": "大数据部门",
			"connObjCatCd": "1010101",
			"connObjId": "DON00001010000000061",
			"keyWord": "手机品牌",
			"timeStamp": "",
			"expiryDate": "",
			"supMemName": "电信上海",
			"status": 2,
			"prdtDesc": "-",
			"connObjNo": "DOS20161004000000021",
			"prdtIdCd": "000016",
			"prdtName": "手机品牌",
			"id": 5,
			"connObjVer": "100"
		}, {
			"supMemId": "0000101",
			"supMemDept": "大数据部门",
			"connObjCatCd": "1010101",
			"connObjId": "DON00001010000000066",
			"keyWord": "地市\n",
			"timeStamp": "",
			"expiryDate": "",
			"supMemName": "电信上海",
			"status": 2,
			"prdtDesc": "-",
			"connObjNo": "DOS20161004000000026",
			"prdtIdCd": "000027",
			"prdtName": "手机号码归属地市",
			"id": 6,
			"connObjVer": "100"
		}, {
			"supMemId": "0000101",
			"supMemDept": "大数据部门",
			"connObjCatCd": "1010101",
			"connObjId": "DON00001010000000071",
			"keyWord": "小孩",
			"timeStamp": "",
			"expiryDate": "",
			"supMemName": "电信上海",
			"status": 2,
			"prdtDesc": "-",
			"connObjNo": "DOS20161004000000031",
			"prdtIdCd": "000009",
			"prdtName": "是否有小孩",
			"id": 7,
			"connObjVer": "100"
		}, {
			"supMemId": "0000101",
			"supMemDept": "大数据部门",
			"connObjCatCd": "1010101",
			"connObjId": "DON00001010000000081",
			"keyWord": "居住区域",
			"timeStamp": "",
			"expiryDate": "",
			"supMemName": "电信上海",
			"status": 2,
			"prdtDesc": "-",
			"connObjNo": "DOS20161004000000036",
			"prdtIdCd": "000074",
			"prdtName": "居住区域预测",
			"id": 8,
			"connObjVer": "100"
		}, {
			"supMemId": "0000101",
			"supMemDept": "大数据部门",
			"connObjCatCd": "1010101",
			"connObjId": "DON00001010000000086",
			"keyWord": "工作区域",
			"timeStamp": "",
			"expiryDate": "",
			"supMemName": "电信上海",
			"status": 2,
			"prdtDesc": "-",
			"connObjNo": "DOS20161004000000041",
			"prdtIdCd": "000075",
			"prdtName": "工作区域预测",
			"id": 9,
			"connObjVer": "100"
		}, {
			"supMemId": "0000101",
			"supMemDept": "大数据部门",
			"connObjCatCd": "1010101",
			"connObjId": "DON00001010000000091",
			"keyWord": "视频\n",
			"timeStamp": "",
			"expiryDate": "",
			"supMemName": "电信上海",
			"status": 3,
			"prdtDesc": "-",
			"connObjNo": "DOS20161004000000046",
			"prdtIdCd": "000056",
			"prdtName": "浏览视频类型列表",
			"id": 10,
			"connObjVer": "100"
		}],
		"is_mall": true,
		"is_mall_trade": true,
		"page": {
			"pre_more": false,
			"begin": 0,
			"rows": 10,
			"total_rows": 106,
			"page_list": [1, 2, 3],
			"end": 0,
			"suf_more": true,
			"total_pages": 11,
			"page": 1
		}
	},
	"msg_level": 1
}