{
	"status": 1,
	"msg": "\u6210\u529f",
	"data": {
		"list": [{
			"supMemId": "0000079",
			"orderId": "ODN20170504000000586",
			"orderExpiryDate": "2017-05-04 11:07:52",
			"needCache": 0,
			"orderInitTime": "2017-05-04 11:08:11",
			"name": "qq2",
			"feeCalDim": 0,
			"svcType": "CACHE",
			"orderConfirmTime": null,
			"supInfoFullNameCN": "\u535a\u5f66\u79d1\u6280(\u4e0a\u6d77)\u6709\u9650\u516c\u53f8",
			"demMemId": "0000109",
			"supMemName": null,
			"status": "02",
			"demInfoFullNameCN": "\u6676\u8d5e\u79d1\u6280",
			"orderEffectDate": "2017-05-04 11:07:52",
			"settModCd": "02",
			"cacheTime": 0,
			"id": 144,
			"demMemName": "0000109_adm"
		}, {
			"supMemId": "0000079",
			"orderId": "ODN20170504000000581",
			"orderExpiryDate": "2017-05-04 11:07:08",
			"needCache": 0,
			"orderInitTime": "2017-05-04 11:07:32",
			"name": "qqq",
			"feeCalDim": 0,
			"svcType": "CACHE",
			"orderConfirmTime": null,
			"supInfoFullNameCN": "\u535a\u5f66\u79d1\u6280(\u4e0a\u6d77)\u6709\u9650\u516c\u53f8",
			"demMemId": "0000109",
			"supMemName": null,
			"status": "02",
			"demInfoFullNameCN": "\u6676\u8d5e\u79d1\u6280",
			"orderEffectDate": "2017-05-04 11:07:08",
			"settModCd": "02",
			"cacheTime": 0,
			"id": 143,
			"demMemName": "0000109_adm"
		}, {
			"supMemId": "0000079",
			"orderId": "ODN20170504000000576",
			"orderExpiryDate": "2017-05-04 11:02:37",
			"needCache": 0,
			"orderInitTime": "2017-05-04 11:02:59",
			"name": "111",
			"feeCalDim": 0,
			"svcType": "CACHE",
			"orderConfirmTime": null,
			"supInfoFullNameCN": "\u535a\u5f66\u79d1\u6280(\u4e0a\u6d77)\u6709\u9650\u516c\u53f8",
			"demMemId": "0000109",
			"supMemName": null,
			"status": "02",
			"demInfoFullNameCN": "\u6676\u8d5e\u79d1\u6280",
			"orderEffectDate": "2017-05-04 11:02:37",
			"settModCd": "02",
			"cacheTime": 0,
			"id": 142,
			"demMemName": "0000109_adm"
		}, {
			"supMemId": "0000079",
			"orderId": "ODN20170504000000571",
			"orderExpiryDate": "2017-05-04 10:57:32",
			"needCache": 0,
			"orderInitTime": "2017-05-04 10:57:53",
			"name": "111a",
			"feeCalDim": 0,
			"svcType": "CACHE",
			"orderConfirmTime": null,
			"supInfoFullNameCN": "\u535a\u5f66\u79d1\u6280(\u4e0a\u6d77)\u6709\u9650\u516c\u53f8",
			"demMemId": "0000109",
			"supMemName": null,
			"status": "02",
			"demInfoFullNameCN": "\u6676\u8d5e\u79d1\u6280",
			"orderEffectDate": "2017-05-04 10:57:32",
			"settModCd": "02",
			"cacheTime": 0,
			"id": 141,
			"demMemName": "0000109_adm"
		}, {
			"supMemId": "0000109",
			"orderId": "ODN20170503000000511",
			"orderExpiryDate": "2017-05-04 00:00:00",
			"needCache": 0,
			"orderInitTime": "2017-05-03 13:58:46",
			"name": "1q2w3e",
			"feeCalDim": 0,
			"svcType": "CACHE",
			"orderConfirmTime": null,
			"supInfoFullNameCN": "\u6676\u8d5e\u79d1\u6280",
			"demMemId": "0000079",
			"supMemName": null,
			"status": "02",
			"demInfoFullNameCN": "\u535a\u5f66\u79d1\u6280(\u4e0a\u6d77)\u6709\u9650\u516c\u53f8",
			"orderEffectDate": "2017-05-03 00:00:00",
			"settModCd": "02",
			"cacheTime": 0,
			"id": 131,
			"demMemName": "0000079_adm"
		}, {
			"supMemId": "0000109",
			"orderId": "ODN20170421000000461",
			"orderExpiryDate": "2017-04-22 00:00:00",
			"needCache": 0,
			"orderInitTime": "2017-04-21 11:12:31",
			"name": "1212",
			"feeCalDim": 0,
			"svcType": "CACHE",
			"orderConfirmTime": null,
			"supInfoFullNameCN": "\u6676\u8d5e\u79d1\u6280",
			"demMemId": "0000079",
			"supMemName": null,
			"status": "02",
			"demInfoFullNameCN": "\u535a\u5f66\u79d1\u6280(\u4e0a\u6d77)\u6709\u9650\u516c\u53f8",
			"orderEffectDate": "2017-04-21 00:00:00",
			"settModCd": "02",
			"cacheTime": 0,
			"id": 123,
			"demMemName": "0000079_adm"
		}, {
			"supMemId": "0000079",
			"orderId": "ODN20170103000000226",
			"orderExpiryDate": "2017-01-04 00:00:00",
			"needCache": 0,
			"orderInitTime": "2017-01-03 14:28:51",
			"name": "qwerrewreqgeg",
			"feeCalDim": 0,
			"svcType": "CACHE",
			"orderConfirmTime": "2017-02-23 15:57:27",
			"supInfoFullNameCN": "\u535a\u5f66\u79d1\u6280(\u4e0a\u6d77)\u6709\u9650\u516c\u53f8",
			"demMemId": "0000109",
			"supMemName": "0000079_adm",
			"status": "06",
			"demInfoFullNameCN": "\u6676\u8d5e\u79d1\u6280",
			"orderEffectDate": "2017-01-03 00:00:00",
			"settModCd": "02",
			"cacheTime": 0,
			"id": 50,
			"demMemName": "0000109_adm"
		}, {
			"supMemId": "0000079",
			"orderId": "ODN20161208000000166",
			"orderExpiryDate": "2016-12-09 00:00:00",
			"needCache": 0,
			"orderInitTime": "2016-12-08 11:27:10",
			"name": "123",
			"feeCalDim": 0,
			"svcType": "CACHE",
			"orderConfirmTime": null,
			"supInfoFullNameCN": "\u535a\u5f66\u79d1\u6280(\u4e0a\u6d77)\u6709\u9650\u516c\u53f8",
			"demMemId": "0000109",
			"supMemName": null,
			"status": "06",
			"demInfoFullNameCN": "\u6676\u8d5e\u79d1\u6280",
			"orderEffectDate": "2016-12-08 00:00:00",
			"settModCd": "02",
			"cacheTime": 0,
			"id": 37,
			"demMemName": "0000109_adm"
		}, {
			"supMemId": "0000109",
			"orderId": "ODN20161007000000096",
			"orderExpiryDate": "2016-10-08 00:00:00",
			"needCache": 0,
			"orderInitTime": "2016-10-07 09:09:34",
			"name": "33",
			"feeCalDim": 0,
			"svcType": "CACHE",
			"orderConfirmTime": null,
			"supInfoFullNameCN": "\u6676\u8d5e\u79d1\u6280",
			"demMemId": "0000079",
			"supMemName": null,
			"status": "06",
			"demInfoFullNameCN": "\u535a\u5f66\u79d1\u6280(\u4e0a\u6d77)\u6709\u9650\u516c\u53f8",
			"orderEffectDate": "2016-10-07 00:00:00",
			"settModCd": "02",
			"cacheTime": 0,
			"id": 23,
			"demMemName": "0000079_adm"
		}, {
			"supMemId": "0000109",
			"orderId": "ODN20161006000000086",
			"orderExpiryDate": "2016-10-09 00:00:00",
			"needCache": 0,
			"orderInitTime": "2016-10-05 10:00:00",
			"name": " \u6676\u8d5e\u79d1\u62801",
			"feeCalDim": 0,
			"svcType": "CACHE",
			"orderConfirmTime": null,
			"supInfoFullNameCN": "\u6676\u8d5e\u79d1\u6280",
			"demMemId": "0000079",
			"supMemName": null,
			"status": "06",
			"demInfoFullNameCN": "\u535a\u5f66\u79d1\u6280(\u4e0a\u6d77)\u6709\u9650\u516c\u53f8",
			"orderEffectDate": "2016-10-08 00:00:00",
			"settModCd": "02",
			"cacheTime": 0,
			"id": 21,
			"demMemName": "0000079_adm"
		}],
		"page": {
			"pre_more": false,
			"begin": 0,
			"rows": 10,
			"total_rows": 26,
			"page_list": [1, 2, 3],
			"end": 0,
			"suf_more": false,
			"total_pages": 3,
			"page": 1
		}
	},
	"msg_level": 1
}