{
    "status": 1,
    "msg": "成功",
    "data": {
        "cartNum": 0,
        "list": [
            {
                "orderId": "1212",
                "orderName": "1212",
                "connObjId": "1212",
                "connObjName": "1212",
                "paidAmt": "1212",
                "rctAmt": "1212",
                "rctAmtTot": "1212",
                "paidAmtTot": "1212"
            },
            {
                "orderId": "1212",
                "orderName": "1212",
                "connObjId": "1212",
                "connObjName": "1212",
                "paidAmt": "1212",
                "rctAmt": "1212",
                "rctAmtTot": "1212",
                "paidAmtTot": "1212"
            }

        ],
        "page": {
            "pre_more": false,
            "begin": 0,
            "rows": 10,
            "total_rows": 16,
            "page_list": [
                1,
                2,
                3
            ],
            "end": 0,
            "suf_more": true,
            "total_pages": 11,
            "page": 1
        }
    }
}